%YAML 1.1
%TAG !u! tag:unity3d.com,2011:
--- !u!1045 &1
EditorBuildSettings:
  m_ObjectHideFlags: 0
  serializedVersion: 2
  m_Scenes:
  - enabled: 0
    path: 
    guid: 00000000000000000000000000000000
  - enabled: 1
    path: Assets/Scenes/Menu.unity
    guid: c474f74f841520043b269ea4990a3741
  - enabled: 1
    path: Assets/Scenes/Game.unity
    guid: e079bbad6612cc242a56c08f46085a00
  - enabled: 1
    path: Assets/Scenes/EndGame.unity
    guid: b3255364ccba74f4f865d04df127f9a7
  m_configObjects: {}
